{
    "accessors" : [
        {
            "bufferView" : 0,
            "componentType" : 5123,
            "count" : 108,
            "max" : [
                59
            ],
            "min" : [
                0
            ],
            "type" : "SCALAR"
        },
        {
            "bufferView" : 1,
            "componentType" : 5126,
            "count" : 60,
            "max" : [
                0.9829666614532471,
                0.9999995231628418,
                0.7518776655197144
            ],
            "min" : [
                -1.0252947807312012,
                -1.0024809837341309,
                -1.2495200634002686
            ],
            "type" : "VEC3"
        },
        {
            "bufferView" : 2,
            "componentType" : 5126,
            "count" : 60,
            "max" : [
                0.9999696612358093,
                0.9999998807907104,
                0.8723930716514587
            ],
            "min" : [
                -0.9999994039535522,
                -0.9999992847442627,
                -0.8703324794769287
            ],
            "type" : "VEC3"
        },
        {
            "bufferView" : 3,
            "componentType" : 5123,
            "count" : 60,
            "max" : [
                35
            ],
            "min" : [
                0
            ],
            "type" : "SCALAR"
        },
        {
            "bufferView" : 4,
            "componentType" : 5126,
            "count" : 36,
            "max" : [
                0.7613247632980347,
                0.9999995231628418,
                1.2188849449157715
            ],
            "min" : [
                -1.2368803024291992,
                -1.0000017881393433,
                -1.1935880184173584
            ],
            "type" : "VEC3"
        },
        {
            "bufferView" : 5,
            "componentType" : 5126,
            "count" : 36,
            "max" : [
                0.9999961256980896,
                1.0,
                0.8694949150085449
            ],
            "min" : [
                -0.9999977350234985,
                -1.0,
                -0.8581269383430481
            ],
            "type" : "VEC3"
        },
        {
            "bufferView" : 6,
            "componentType" : 5123,
            "count" : 60,
            "max" : [
                35
            ],
            "min" : [
                0
            ],
            "type" : "SCALAR"
        },
        {
            "bufferView" : 7,
            "componentType" : 5126,
            "count" : 36,
            "max" : [
                0.7613247632980347,
                0.9999995231628418,
                1.2188849449157715
            ],
            "min" : [
                -1.2368803024291992,
                -1.0000017881393433,
                -1.1935880184173584
            ],
            "type" : "VEC3"
        },
        {
            "bufferView" : 8,
            "componentType" : 5126,
            "count" : 36,
            "max" : [
                0.9999961256980896,
                1.0,
                0.8694949150085449
            ],
            "min" : [
                -0.9999977350234985,
                -1.0,
                -0.8581269383430481
            ],
            "type" : "VEC3"
        },
        {
            "bufferView" : 9,
            "componentType" : 5123,
            "count" : 36,
            "max" : [
                23
            ],
            "min" : [
                0
            ],
            "type" : "SCALAR"
        },
        {
            "bufferView" : 10,
            "componentType" : 5126,
            "count" : 24,
            "max" : [
                0.20866751670837402,
                0.9999995231628418,
                0.9039808511734009
            ],
            "min" : [
                -0.09343457221984863,
                -1.0000017881393433,
                -1.64013671875
            ],
            "type" : "VEC3"
        },
        {
            "bufferView" : 11,
            "componentType" : 5126,
            "count" : 24,
            "max" : [
                0.9999994039535522,
                1.0,
                0.7132505178451538
            ],
            "min" : [
                -0.9999943971633911,
                -1.0,
                -0.847779393196106
            ],
            "type" : "VEC3"
        },
        {
            "bufferView" : 12,
            "componentType" : 5123,
            "count" : 108,
            "max" : [
                59
            ],
            "min" : [
                0
            ],
            "type" : "SCALAR"
        },
        {
            "bufferView" : 13,
            "componentType" : 5126,
            "count" : 60,
            "max" : [
                1.087166666984558,
                0.9999995231628418,
                0.7664166688919067
            ],
            "min" : [
                -1.131201148033142,
                -1.0000017881393433,
                -1.3040419816970825
            ],
            "type" : "VEC3"
        },
        {
            "bufferView" : 14,
            "componentType" : 5126,
            "count" : 60,
            "max" : [
                0.9933077096939087,
                0.9999955296516418,
                0.9207293391227722
            ],
            "min" : [
                -0.9911713600158691,
                -0.992567241191864,
                -0.9355660080909729
            ],
            "type" : "VEC3"
        },
        {
            "bufferView" : 15,
            "componentType" : 5123,
            "count" : 36,
            "max" : [
                23
            ],
            "min" : [
                0
            ],
            "type" : "SCALAR"
        },
        {
            "bufferView" : 16,
            "componentType" : 5126,
            "count" : 24,
            "max" : [
                1.0000004768371582,
                1.0,
                1.0000005960464478
            ],
            "min" : [
                -1.0000003576278687,
                -1.0,
                -1.0000003576278687
            ],
            "type" : "VEC3"
        },
        {
            "bufferView" : 17,
            "componentType" : 5126,
            "count" : 24,
            "max" : [
                1.0,
                1.0,
                1.0
            ],
            "min" : [
                -1.0,
                -1.0,
                -1.0
            ],
            "type" : "VEC3"
        },
        {
            "bufferView" : 18,
            "componentType" : 5123,
            "count" : 36,
            "max" : [
                23
            ],
            "min" : [
                0
            ],
            "type" : "SCALAR"
        },
        {
            "bufferView" : 19,
            "componentType" : 5126,
            "count" : 24,
            "max" : [
                1.0000004768371582,
                1.0,
                1.0000005960464478
            ],
            "min" : [
                -1.0000003576278687,
                -1.0,
                -1.0000003576278687
            ],
            "type" : "VEC3"
        },
        {
            "bufferView" : 20,
            "componentType" : 5126,
            "count" : 24,
            "max" : [
                1.0,
                1.0,
                1.0
            ],
            "min" : [
                -1.0,
                -1.0,
                -1.0
            ],
            "type" : "VEC3"
        },
        {
            "bufferView" : 21,
            "componentType" : 5123,
            "count" : 36,
            "max" : [
                23
            ],
            "min" : [
                0
            ],
            "type" : "SCALAR"
        },
        {
            "bufferView" : 22,
            "componentType" : 5126,
            "count" : 24,
            "max" : [
                1.0000004768371582,
                1.0,
                1.0000005960464478
            ],
            "min" : [
                -1.0000003576278687,
                -1.0,
                -1.0000003576278687
            ],
            "type" : "VEC3"
        },
        {
            "bufferView" : 23,
            "componentType" : 5126,
            "count" : 24,
            "max" : [
                1.0,
                1.0,
                1.0
            ],
            "min" : [
                -1.0,
                -1.0,
                -1.0
            ],
            "type" : "VEC3"
        },
        {
            "bufferView" : 24,
            "componentType" : 5123,
            "count" : 36,
            "max" : [
                23
            ],
            "min" : [
                0
            ],
            "type" : "SCALAR"
        },
        {
            "bufferView" : 25,
            "componentType" : 5126,
            "count" : 24,
            "max" : [
                1.0000004768371582,
                1.0,
                1.0000005960464478
            ],
            "min" : [
                -1.0000003576278687,
                -1.0,
                -1.0000003576278687
            ],
            "type" : "VEC3"
        },
        {
            "bufferView" : 26,
            "componentType" : 5126,
            "count" : 24,
            "max" : [
                1.0,
                1.0,
                1.0
            ],
            "min" : [
                -1.0,
                -1.0,
                -1.0
            ],
            "type" : "VEC3"
        },
        {
            "bufferView" : 27,
            "componentType" : 5123,
            "count" : 36,
            "max" : [
                23
            ],
            "min" : [
                0
            ],
            "type" : "SCALAR"
        },
        {
            "bufferView" : 28,
            "componentType" : 5126,
            "count" : 24,
            "max" : [
                1.0,
                1.0164767503738403,
                1.0000001192092896
            ],
            "min" : [
                -1.0,
                -1.1271874904632568,
                -1.0
            ],
            "type" : "VEC3"
        },
        {
            "bufferView" : 29,
            "componentType" : 5126,
            "count" : 24,
            "max" : [
                1.0,
                0.9999948740005493,
                1.0
            ],
            "min" : [
                -1.0,
                -0.9999145269393921,
                -1.0
            ],
            "type" : "VEC3"
        },
        {
            "bufferView" : 30,
            "componentType" : 5123,
            "count" : 8496,
            "max" : [
                3792
            ],
            "min" : [
                0
            ],
            "type" : "SCALAR"
        },
        {
            "bufferView" : 31,
            "componentType" : 5126,
            "count" : 3793,
            "max" : [
                0.9999995231628418,
                0.983970582485199,
                1.0000020265579224
            ],
            "min" : [
                -1.0000017881393433,
                -1.1952145099639893,
                -4.0810112953186035
            ],
            "type" : "VEC3"
        },
        {
            "bufferView" : 32,
            "componentType" : 5126,
            "count" : 3793,
            "max" : [
                1.0,
                0.9999990463256836,
                1.0
            ],
            "min" : [
                -1.0,
                -0.9999977946281433,
                -1.0
            ],
            "type" : "VEC3"
        },
        {
            "bufferView" : 33,
            "componentType" : 5123,
            "count" : 9012,
            "max" : [
                4078
            ],
            "min" : [
                0
            ],
            "type" : "SCALAR"
        },
        {
            "bufferView" : 34,
            "componentType" : 5126,
            "count" : 4079,
            "max" : [
                0.9999998807907104,
                0.9041479229927063,
                1.0000017881393433
            ],
            "min" : [
                -2.5138745307922363,
                -1.1879173517227173,
                -0.9999995231628418
            ],
            "type" : "VEC3"
        },
        {
            "bufferView" : 35,
            "componentType" : 5126,
            "count" : 4079,
            "max" : [
                1.0,
                0.9999935030937195,
                1.0
            ],
            "min" : [
                -1.0,
                -0.9999997615814209,
                -1.0
            ],
            "type" : "VEC3"
        },
        {
            "bufferView" : 36,
            "componentType" : 5126,
            "count" : 4079,
            "max" : [
                1.0,
                1.0,
                1.0,
                1.0
            ],
            "min" : [
                1.0,
                1.0,
                1.0,
                1.0
            ],
            "type" : "VEC4"
        },
        {
            "bufferView" : 37,
            "componentType" : 5123,
            "count" : 852,
            "max" : [
                489
            ],
            "min" : [
                0
            ],
            "type" : "SCALAR"
        },
        {
            "bufferView" : 38,
            "componentType" : 5126,
            "count" : 490,
            "max" : [
                0.11801330000162125,
                0.0,
                -0.7696628570556641
            ],
            "min" : [
                0.017042258754372597,
                -0.3271236717700958,
                -1.0405975580215454
            ],
            "type" : "VEC3"
        },
        {
            "bufferView" : 39,
            "componentType" : 5126,
            "count" : 490,
            "max" : [
                0.9998313188552856,
                1.0,
                0.6382326483726501
            ],
            "min" : [
                -0.9998292326927185,
                -1.0,
                -0.6737688779830933
            ],
            "type" : "VEC3"
        },
        {
            "bufferView" : 40,
            "componentType" : 5123,
            "count" : 852,
            "max" : [
                469
            ],
            "min" : [
                0
            ],
            "type" : "SCALAR"
        },
        {
            "bufferView" : 41,
            "componentType" : 5126,
            "count" : 470,
            "max" : [
                0.1969374418258667,
                0.0,
                -0.77117520570755
            ],
            "min" : [
                0.07960155606269836,
                -0.28719547390937805,
                -0.9908618927001953
            ],
            "type" : "VEC3"
        },
        {
            "bufferView" : 42,
            "componentType" : 5126,
            "count" : 470,
            "max" : [
                0.9985949397087097,
                1.0,
                0.8519161343574524
            ],
            "min" : [
                -0.9999793171882629,
                -1.0,
                -0.7212494015693665
            ],
            "type" : "VEC3"
        },
        {
            "bufferView" : 43,
            "componentType" : 5123,
            "count" : 1452,
            "max" : [
                799
            ],
            "min" : [
                0
            ],
            "type" : "SCALAR"
        },
        {
            "bufferView" : 44,
            "componentType" : 5126,
            "count" : 800,
            "max" : [
                0.42600002884864807,
                0.0,
                0.009000000543892384
            ],
            "min" : [
                0.03996073827147484,
                -1.0123200416564941,
                -0.6915251612663269
            ],
            "type" : "VEC3"
        },
        {
            "bufferView" : 45,
            "componentType" : 5126,
            "count" : 800,
            "max" : [
                1.0,
                1.0,
                0.999671220779419
            ],
            "min" : [
                -1.0,
                -1.0,
                -0.9997360706329346
            ],
            "type" : "VEC3"
        },
        {
            "bufferView" : 46,
            "componentType" : 5123,
            "count" : 480,
            "max" : [
                225
            ],
            "min" : [
                0
            ],
            "type" : "SCALAR"
        },
        {
            "bufferView" : 47,
            "componentType" : 5126,
            "count" : 226,
            "max" : [
                1.0,
                0.0,
                1.0000001192092896
            ],
            "min" : [
                -1.0,
                -0.0655101090669632,
                -1.0000001192092896
            ],
            "type" : "VEC3"
        },
        {
            "bufferView" : 48,
            "componentType" : 5126,
            "count" : 226,
            "max" : [
                0.9951847791671753,
                0.9999995827674866,
                0.9951847195625305
            ],
            "min" : [
                -0.9951847195625305,
                -2.7195135032798134e-08,
                -0.9951848983764648
            ],
            "type" : "VEC3"
        },
        {
            "bufferView" : 49,
            "componentType" : 5123,
            "count" : 240,
            "max" : [
                125
            ],
            "min" : [
                0
            ],
            "type" : "SCALAR"
        },
        {
            "bufferView" : 50,
            "componentType" : 5126,
            "count" : 126,
            "max" : [
                2.0021004676818848,
                -0.1643216758966446,
                1.6430070400238037
            ],
            "min" : [
                0.01602674461901188,
                -1.176024317741394,
                -0.768332839012146
            ],
            "type" : "VEC3"
        },
        {
            "bufferView" : 51,
            "componentType" : 5126,
            "count" : 126,
            "max" : [
                0.9999956488609314,
                0.9999079704284668,
                0.8769178986549377
            ],
            "min" : [
                -0.9999935030937195,
                -0.9999080300331116,
                -0.9999848008155823
            ],
            "type" : "VEC3"
        },
        {
            "bufferView" : 52,
            "componentType" : 5123,
            "count" : 6,
            "max" : [
                3
            ],
            "min" : [
                0
            ],
            "type" : "SCALAR"
        },
        {
            "bufferView" : 53,
            "componentType" : 5126,
            "count" : 4,
            "max" : [
                1.0,
                0.0,
                1.0
            ],
            "min" : [
                -1.0,
                0.0,
                -1.0
            ],
            "type" : "VEC3"
        },
        {
            "bufferView" : 54,
            "componentType" : 5126,
            "count" : 4,
            "max" : [
                0.0,
                1.0,
                -0.0
            ],
            "min" : [
                0.0,
                1.0,
                -0.0
            ],
            "type" : "VEC3"
        },
        {
            "bufferView" : 55,
            "componentType" : 5123,
            "count" : 6,
            "max" : [
                3
            ],
            "min" : [
                0
            ],
            "type" : "SCALAR"
        },
        {
            "bufferView" : 56,
            "componentType" : 5126,
            "count" : 4,
            "max" : [
                1.0,
                0.0,
                1.0
            ],
            "min" : [
                -1.0,
                0.0,
                -1.0
            ],
            "type" : "VEC3"
        },
        {
            "bufferView" : 57,
            "componentType" : 5126,
            "count" : 4,
            "max" : [
                0.0,
                1.0,
                -0.0
            ],
            "min" : [
                0.0,
                1.0,
                -0.0
            ],
            "type" : "VEC3"
        },
        {
            "bufferView" : 58,
            "componentType" : 5123,
            "count" : 6,
            "max" : [
                3
            ],
            "min" : [
                0
            ],
            "type" : "SCALAR"
        },
        {
            "bufferView" : 59,
            "componentType" : 5126,
            "count" : 4,
            "max" : [
                1.0,
                0.0,
                1.0
            ],
            "min" : [
                -1.0,
                0.0,
                -1.0
            ],
            "type" : "VEC3"
        },
        {
            "bufferView" : 60,
            "componentType" : 5126,
            "count" : 4,
            "max" : [
                0.0,
                1.0,
                -0.0
            ],
            "min" : [
                0.0,
                1.0,
                -0.0
            ],
            "type" : "VEC3"
        },
        {
            "bufferView" : 61,
            "componentType" : 5123,
            "count" : 3456,
            "max" : [
                2303
            ],
            "min" : [
                0
            ],
            "type" : "SCALAR"
        },
        {
            "bufferView" : 62,
            "componentType" : 5126,
            "count" : 2304,
            "max" : [
                1.25,
                0.25,
                1.25
            ],
            "min" : [
                -1.25,
                -0.25,
                -1.25
            ],
            "type" : "VEC3"
        },
        {
            "bufferView" : 63,
            "componentType" : 5126,
            "count" : 2304,
            "max" : [
                0.9639958739280701,
                0.9995535612106323,
                0.9639959335327148
            ],
            "min" : [
                -0.9639958739280701,
                -0.99263995885849,
                -0.9639958739280701
            ],
            "type" : "VEC3"
        },
        {
            "bufferView" : 64,
            "componentType" : 5123,
            "count" : 3456,
            "max" : [
                2303
            ],
            "min" : [
                0
            ],
            "type" : "SCALAR"
        },
        {
            "bufferView" : 65,
            "componentType" : 5126,
            "count" : 2304,
            "max" : [
                1.4364663362503052,
                -0.9311423301696777,
                1.4059627056121826
            ],
            "min" : [
                -1.4364663362503052,
                -1.1615869998931885,
                -1.4059627056121826
            ],
            "type" : "VEC3"
        },
        {
            "bufferView" : 66,
            "componentType" : 5126,
            "count" : 2304,
            "max" : [
                0.9901342988014221,
                0.9991851449012756,
                0.9913446307182312
            ],
            "min" : [
                -0.9901342391967773,
                -0.948122501373291,
                -0.9913445115089417
            ],
            "type" : "VEC3"
        },
        {
            "bufferView" : 67,
            "componentType" : 5123,
            "count" : 3456,
            "max" : [
                2303
            ],
            "min" : [
                0
            ],
            "type" : "SCALAR"
        },
        {
            "bufferView" : 68,
            "componentType" : 5126,
            "count" : 2304,
            "max" : [
                1.3247724771499634,
                -0.9311423301696777,
                1.2842093706130981
            ],
            "min" : [
                -1.3247724771499634,
                -1.1615869998931885,
                -1.2842093706130981
            ],
            "type" : "VEC3"
        },
        {
            "bufferView" : 69,
            "componentType" : 5126,
            "count" : 2304,
            "max" : [
                0.9727097749710083,
                0.9995535612106323,
                0.9635083675384521
            ],
            "min" : [
                -0.9727100133895874,
                -0.9708085656166077,
                -0.9635083675384521
            ],
            "type" : "VEC3"
        },
        {
            "bufferView" : 70,
            "componentType" : 5123,
            "count" : 3456,
            "max" : [
                2303
            ],
            "min" : [
                0
            ],
            "type" : "SCALAR"
        },
        {
            "bufferView" : 71,
            "componentType" : 5126,
            "count" : 2304,
            "max" : [
                1.4364663362503052,
                -0.9311423301696777,
                1.4059627056121826
            ],
            "min" : [
                -1.4364663362503052,
                -1.1615869998931885,
                -1.4059627056121826
            ],
            "type" : "VEC3"
        },
        {
            "bufferView" : 72,
            "componentType" : 5126,
            "count" : 2304,
            "max" : [
                0.9901342988014221,
                0.9991851449012756,
                0.9913446307182312
            ],
            "min" : [
                -0.9901342391967773,
                -0.948122501373291,
                -0.9913445115089417
            ],
            "type" : "VEC3"
        },
        {
            "bufferView" : 73,
            "componentType" : 5123,
            "count" : 3456,
            "max" : [
                2303
            ],
            "min" : [
                0
            ],
            "type" : "SCALAR"
        },
        {
            "bufferView" : 74,
            "componentType" : 5126,
            "count" : 2304,
            "max" : [
                1.3247724771499634,
                -0.9311423301696777,
                1.2842093706130981
            ],
            "min" : [
                -1.3247724771499634,
                -1.1615869998931885,
                -1.2842093706130981
            ],
            "type" : "VEC3"
        },
        {
            "bufferView" : 75,
            "componentType" : 5126,
            "count" : 2304,
            "max" : [
                0.9727097749710083,
                0.9995535612106323,
                0.9635083675384521
            ],
            "min" : [
                -0.9727100133895874,
                -0.9708085656166077,
                -0.9635083675384521
            ],
            "type" : "VEC3"
        },
        {
            "bufferView" : 76,
            "componentType" : 5123,
            "count" : 3456,
            "max" : [
                2303
            ],
            "min" : [
                0
            ],
            "type" : "SCALAR"
        },
        {
            "bufferView" : 77,
            "componentType" : 5126,
            "count" : 2304,
            "max" : [
                1.3247724771499634,
                -0.9311423301696777,
                1.2842093706130981
            ],
            "min" : [
                -1.3247724771499634,
                -1.1615869998931885,
                -1.2842093706130981
            ],
            "type" : "VEC3"
        },
        {
            "bufferView" : 78,
            "componentType" : 5126,
            "count" : 2304,
            "max" : [
                0.9727097749710083,
                0.9995535612106323,
                0.9635083675384521
            ],
            "min" : [
                -0.9727100133895874,
                -0.9708085656166077,
                -0.9635083675384521
            ],
            "type" : "VEC3"
        },
        {
            "bufferView" : 79,
            "componentType" : 5123,
            "count" : 354,
            "max" : [
                165
            ],
            "min" : [
                0
            ],
            "type" : "SCALAR"
        },
        {
            "bufferView" : 80,
            "componentType" : 5126,
            "count" : 166,
            "max" : [
                0.09681618958711624,
                0.0,
                -0.9185494184494019
            ],
            "min" : [
                0.06099339947104454,
                0.0,
                -0.9699928760528564
            ],
            "type" : "VEC3"
        },
        {
            "bufferView" : 81,
            "componentType" : 5126,
            "count" : 166,
            "max" : [
                0.0,
                1.0,
                -0.0
            ],
            "min" : [
                0.0,
                0.9999999403953552,
                -0.0
            ],
            "type" : "VEC3"
        },
        {
            "bufferView" : 82,
            "componentType" : 5123,
            "count" : 354,
            "max" : [
                166
            ],
            "min" : [
                0
            ],
            "type" : "SCALAR"
        },
        {
            "bufferView" : 83,
            "componentType" : 5126,
            "count" : 167,
            "max" : [
                0.13234563171863556,
                0.0,
                -0.9276955127716064
            ],
            "min" : [
                0.09726879000663757,
                0.0,
                -0.9795540571212769
            ],
            "type" : "VEC3"
        },
        {
            "bufferView" : 84,
            "componentType" : 5126,
            "count" : 167,
            "max" : [
                0.0,
                1.0,
                -0.0
            ],
            "min" : [
                0.0,
                0.9999999403953552,
                -0.0
            ],
            "type" : "VEC3"
        },
        {
            "bufferView" : 85,
            "componentType" : 5123,
            "count" : 318,
            "max" : [
                141
            ],
            "min" : [
                0
            ],
            "type" : "SCALAR"
        },
        {
            "bufferView" : 86,
            "componentType" : 5126,
            "count" : 142,
            "max" : [
                0.0785016268491745,
                0.0,
                -0.8750406503677368
            ],
            "min" : [
                0.034034956246614456,
                0.0,
                -0.9177131056785583
            ],
            "type" : "VEC3"
        },
        {
            "bufferView" : 87,
            "componentType" : 5126,
            "count" : 142,
            "max" : [
                0.0,
                1.0,
                -0.0
            ],
            "min" : [
                0.0,
                0.9999999403953552,
                -0.0
            ],
            "type" : "VEC3"
        },
        {
            "bufferView" : 88,
            "componentType" : 5123,
            "count" : 318,
            "max" : [
                162
            ],
            "min" : [
                0
            ],
            "type" : "SCALAR"
        },
        {
            "bufferView" : 89,
            "componentType" : 5126,
            "count" : 163,
            "max" : [
                0.17589232325553894,
                0.0,
                -0.9005698561668396
            ],
            "min" : [
                0.1413034349679947,
                0.0,
                -0.9532243609428406
            ],
            "type" : "VEC3"
        },
        {
            "bufferView" : 90,
            "componentType" : 5126,
            "count" : 163,
            "max" : [
                0.0,
                1.0,
                -0.0
            ],
            "min" : [
                0.0,
                0.9999999403953552,
                -0.0
            ],
            "type" : "VEC3"
        },
        {
            "bufferView" : 91,
            "componentType" : 5123,
            "count" : 246,
            "max" : [
                120
            ],
            "min" : [
                0
            ],
            "type" : "SCALAR"
        },
        {
            "bufferView" : 92,
            "componentType" : 5126,
            "count" : 121,
            "max" : [
                0.1652359515428543,
                0.0,
                -0.8408316373825073
            ],
            "min" : [
                0.07879368215799332,
                0.0,
                -0.9058935642242432
            ],
            "type" : "VEC3"
        },
        {
            "bufferView" : 93,
            "componentType" : 5126,
            "count" : 121,
            "max" : [
                0.0,
                1.0,
                -0.0
            ],
            "min" : [
                0.0,
                0.9999999403953552,
                -0.0
            ],
            "type" : "VEC3"
        },
        {
            "bufferView" : 94,
            "componentType" : 5123,
            "count" : 633,
            "max" : [
                265
            ],
            "min" : [
                0
            ],
            "type" : "SCALAR"
        },
        {
            "bufferView" : 95,
            "componentType" : 5126,
            "count" : 266,
            "max" : [
                1.4639999866485596,
                0.0,
                0.23000000417232513
            ],
            "min" : [
                0.05700000375509262,
                0.0,
                -0.6820000410079956
            ],
            "type" : "VEC3"
        },
        {
            "bufferView" : 96,
            "componentType" : 5126,
            "count" : 266,
            "max" : [
                0.0,
                1.0,
                -0.0
            ],
            "min" : [
                0.0,
                0.9999999403953552,
                -0.0
            ],
            "type" : "VEC3"
        },
        {
            "bufferView" : 97,
            "componentType" : 5123,
            "count" : 633,
            "max" : [
                265
            ],
            "min" : [
                0
            ],
            "type" : "SCALAR"
        },
        {
            "bufferView" : 98,
            "componentType" : 5126,
            "count" : 266,
            "max" : [
                1.4639999866485596,
                0.0,
                0.23000000417232513
            ],
            "min" : [
                0.05700000375509262,
                0.0,
                -0.6820000410079956
            ],
            "type" : "VEC3"
        },
        {
            "bufferView" : 99,
            "componentType" : 5126,
            "count" : 266,
            "max" : [
                0.0,
                1.0,
                -0.0
            ],
            "min" : [
                0.0,
                0.9999999403953552,
                -0.0
            ],
            "type" : "VEC3"
        },
        {
            "bufferView" : 100,
            "componentType" : 5123,
            "count" : 2919,
            "max" : [
                1270
            ],
            "min" : [
                0
            ],
            "type" : "SCALAR"
        },
        {
            "bufferView" : 101,
            "componentType" : 5126,
            "count" : 1271,
            "max" : [
                4.629000186920166,
                0.0,
                0.009000000543892384
            ],
            "min" : [
                0.0,
                0.0,
                -0.6820000410079956
            ],
            "type" : "VEC3"
        },
        {
            "bufferView" : 102,
            "componentType" : 5126,
            "count" : 1271,
            "max" : [
                0.0,
                1.0,
                -0.0
            ],
            "min" : [
                0.0,
                0.9999999403953552,
                -0.0
            ],
            "type" : "VEC3"
        },
        {
            "bufferView" : 103,
            "componentType" : 5123,
            "count" : 2307,
            "max" : [
                1063
            ],
            "min" : [
                0
            ],
            "type" : "SCALAR"
        },
        {
            "bufferView" : 104,
            "componentType" : 5126,
            "count" : 1064,
            "max" : [
                4.709000587463379,
                0.0,
                0.23000000417232513
            ],
            "min" : [
                0.017000000923871994,
                0.0,
                -0.6820000410079956
            ],
            "type" : "VEC3"
        },
        {
            "bufferView" : 105,
            "componentType" : 5126,
            "count" : 1064,
            "max" : [
                -0.0,
                1.0,
                -0.0
            ],
            "min" : [
                -0.0,
                0.0,
                -0.0
            ],
            "type" : "VEC3"
        },
        {
            "bufferView" : 106,
            "componentType" : 5123,
            "count" : 1944,
            "max" : [
                906
            ],
            "min" : [
                0
            ],
            "type" : "SCALAR"
        },
        {
            "bufferView" : 107,
            "componentType" : 5126,
            "count" : 907,
            "max" : [
                3.9050002098083496,
                0.0,
                0.009000000543892384
            ],
            "min" : [
                0.07300000637769699,
                0.0,
                -0.6914074420928955
            ],
            "type" : "VEC3"
        },
        {
            "bufferView" : 108,
            "componentType" : 5126,
            "count" : 907,
            "max" : [
                0.0,
                1.0,
                -0.0
            ],
            "min" : [
                0.0,
                0.0,
                -0.0
            ],
            "type" : "VEC3"
        },
        {
            "bufferView" : 109,
            "componentType" : 5123,
            "count" : 2415,
            "max" : [
                1108
            ],
            "min" : [
                0
            ],
            "type" : "SCALAR"
        },
        {
            "bufferView" : 110,
            "componentType" : 5126,
            "count" : 1109,
            "max" : [
                3.744000196456909,
                0.0,
                0.23000000417232513
            ],
            "min" : [
                0.07600000500679016,
                0.0,
                -0.6820000410079956
            ],
            "type" : "VEC3"
        },
        {
            "bufferView" : 111,
            "componentType" : 5126,
            "count" : 1109,
            "max" : [
                -0.0,
                1.0,
                -0.0
            ],
            "min" : [
                -0.0,
                0.0,
                -0.0
            ],
            "type" : "VEC3"
        }
    ],
    "asset" : {
        "generator" : "Khronos Blender glTF 2.0 exporter",
        "version" : "2.0"
    },
    "bufferViews" : [
        {
            "buffer" : 0,
            "byteLength" : 216,
            "byteOffset" : 0,
            "target" : 34963
        },
        {
            "buffer" : 0,
            "byteLength" : 720,
            "byteOffset" : 216,
            "target" : 34962
        },
        {
            "buffer" : 0,
            "byteLength" : 720,
            "byteOffset" : 936,
            "target" : 34962
        },
        {
            "buffer" : 0,
            "byteLength" : 120,
            "byteOffset" : 1656,
            "target" : 34963
        },
        {
            "buffer" : 0,
            "byteLength" : 432,
            "byteOffset" : 1776,
            "target" : 34962
        },
        {
            "buffer" : 0,
            "byteLength" : 432,
            "byteOffset" : 2208,
            "target" : 34962
        },
        {
            "buffer" : 0,
            "byteLength" : 120,
            "byteOffset" : 2640,
            "target" : 34963
        },
        {
            "buffer" : 0,
            "byteLength" : 432,
            "byteOffset" : 2760,
            "target" : 34962
        },
        {
            "buffer" : 0,
            "byteLength" : 432,
            "byteOffset" : 3192,
            "target" : 34962
        },
        {
            "buffer" : 0,
            "byteLength" : 72,
            "byteOffset" : 3624,
            "target" : 34963
        },
        {
            "buffer" : 0,
            "byteLength" : 288,
            "byteOffset" : 3696,
            "target" : 34962
        },
        {
            "buffer" : 0,
            "byteLength" : 288,
            "byteOffset" : 3984,
            "target" : 34962
        },
        {
            "buffer" : 0,
            "byteLength" : 216,
            "byteOffset" : 4272,
            "target" : 34963
        },
        {
            "buffer" : 0,
            "byteLength" : 720,
            "byteOffset" : 4488,
            "target" : 34962
        },
        {
            "buffer" : 0,
            "byteLength" : 720,
            "byteOffset" : 5208,
            "target" : 34962
        },
        {
            "buffer" : 0,
            "byteLength" : 72,
            "byteOffset" : 5928,
            "target" : 34963
        },
        {
            "buffer" : 0,
            "byteLength" : 288,
            "byteOffset" : 6000,
            "target" : 34962
        },
        {
            "buffer" : 0,
            "byteLength" : 288,
            "byteOffset" : 6288,
            "target" : 34962
        },
        {
            "buffer" : 0,
            "byteLength" : 72,
            "byteOffset" : 6576,
            "target" : 34963
        },
        {
            "buffer" : 0,
            "byteLength" : 288,
            "byteOffset" : 6648,
            "target" : 34962
        },
        {
            "buffer" : 0,
            "byteLength" : 288,
            "byteOffset" : 6936,
            "target" : 34962
        },
        {
            "buffer" : 0,
            "byteLength" : 72,
            "byteOffset" : 7224,
            "target" : 34963
        },
        {
            "buffer" : 0,
            "byteLength" : 288,
            "byteOffset" : 7296,
            "target" : 34962
        },
        {
            "buffer" : 0,
            "byteLength" : 288,
            "byteOffset" : 7584,
            "target" : 34962
        },
        {
            "buffer" : 0,
            "byteLength" : 72,
            "byteOffset" : 7872,
            "target" : 34963
        },
        {
            "buffer" : 0,
            "byteLength" : 288,
            "byteOffset" : 7944,
            "target" : 34962
        },
        {
            "buffer" : 0,
            "byteLength" : 288,
            "byteOffset" : 8232,
            "target" : 34962
        },
        {
            "buffer" : 0,
            "byteLength" : 72,
            "byteOffset" : 8520,
            "target" : 34963
        },
        {
            "buffer" : 0,
            "byteLength" : 288,
            "byteOffset" : 8592,
            "target" : 34962
        },
        {
            "buffer" : 0,
            "byteLength" : 288,
            "byteOffset" : 8880,
            "target" : 34962
        },
        {
            "buffer" : 0,
            "byteLength" : 16992,
            "byteOffset" : 9168,
            "target" : 34963
        },
        {
            "buffer" : 0,
            "byteLength" : 45516,
            "byteOffset" : 26160,
            "target" : 34962
        },
        {
            "buffer" : 0,
            "byteLength" : 45516,
            "byteOffset" : 71676,
            "target" : 34962
        },
        {
            "buffer" : 0,
            "byteLength" : 18024,
            "byteOffset" : 117192,
            "target" : 34963
        },
        {
            "buffer" : 0,
            "byteLength" : 48948,
            "byteOffset" : 135216,
            "target" : 34962
        },
        {
            "buffer" : 0,
            "byteLength" : 48948,
            "byteOffset" : 184164,
            "target" : 34962
        },
        {
            "buffer" : 0,
            "byteLength" : 65264,
            "byteOffset" : 233112,
            "target" : 34962
        },
        {
            "buffer" : 0,
            "byteLength" : 1704,
            "byteOffset" : 298376,
            "target" : 34963
        },
        {
            "buffer" : 0,
            "byteLength" : 5880,
            "byteOffset" : 300080,
            "target" : 34962
        },
        {
            "buffer" : 0,
            "byteLength" : 5880,
            "byteOffset" : 305960,
            "target" : 34962
        },
        {
            "buffer" : 0,
            "byteLength" : 1704,
            "byteOffset" : 311840,
            "target" : 34963
        },
        {
            "buffer" : 0,
            "byteLength" : 5640,
            "byteOffset" : 313544,
            "target" : 34962
        },
        {
            "buffer" : 0,
            "byteLength" : 5640,
            "byteOffset" : 319184,
            "target" : 34962
        },
        {
            "buffer" : 0,
            "byteLength" : 2904,
            "byteOffset" : 324824,
            "target" : 34963
        },
        {
            "buffer" : 0,
            "byteLength" : 9600,
            "byteOffset" : 327728,
            "target" : 34962
        },
        {
            "buffer" : 0,
            "byteLength" : 9600,
            "byteOffset" : 337328,
            "target" : 34962
        },
        {
            "buffer" : 0,
            "byteLength" : 960,
            "byteOffset" : 346928,
            "target" : 34963
        },
        {
            "buffer" : 0,
            "byteLength" : 2712,
            "byteOffset" : 347888,
            "target" : 34962
        },
        {
            "buffer" : 0,
            "byteLength" : 2712,
            "byteOffset" : 350600,
            "target" : 34962
        },
        {
            "buffer" : 0,
            "byteLength" : 480,
            "byteOffset" : 353312,
            "target" : 34963
        },
        {
            "buffer" : 0,
            "byteLength" : 1512,
            "byteOffset" : 353792,
            "target" : 34962
        },
        {
            "buffer" : 0,
            "byteLength" : 1512,
            "byteOffset" : 355304,
            "target" : 34962
        },
        {
            "buffer" : 0,
            "byteLength" : 12,
            "byteOffset" : 356816,
            "target" : 34963
        },
        {
            "buffer" : 0,
            "byteLength" : 48,
            "byteOffset" : 356828,
            "target" : 34962
        },
        {
            "buffer" : 0,
            "byteLength" : 48,
            "byteOffset" : 356876,
            "target" : 34962
        },
        {
            "buffer" : 0,
            "byteLength" : 12,
            "byteOffset" : 356924,
            "target" : 34963
        },
        {
            "buffer" : 0,
            "byteLength" : 48,
            "byteOffset" : 356936,
            "target" : 34962
        },
        {
            "buffer" : 0,
            "byteLength" : 48,
            "byteOffset" : 356984,
            "target" : 34962
        },
        {
            "buffer" : 0,
            "byteLength" : 12,
            "byteOffset" : 357032,
            "target" : 34963
        },
        {
            "buffer" : 0,
            "byteLength" : 48,
            "byteOffset" : 357044,
            "target" : 34962
        },
        {
            "buffer" : 0,
            "byteLength" : 48,
            "byteOffset" : 357092,
            "target" : 34962
        },
        {
            "buffer" : 0,
            "byteLength" : 6912,
            "byteOffset" : 357140,
            "target" : 34963
        },
        {
            "buffer" : 0,
            "byteLength" : 27648,
            "byteOffset" : 364052,
            "target" : 34962
        },
        {
            "buffer" : 0,
            "byteLength" : 27648,
            "byteOffset" : 391700,
            "target" : 34962
        },
        {
            "buffer" : 0,
            "byteLength" : 6912,
            "byteOffset" : 419348,
            "target" : 34963
        },
        {
            "buffer" : 0,
            "byteLength" : 27648,
            "byteOffset" : 426260,
            "target" : 34962
        },
        {
            "buffer" : 0,
            "byteLength" : 27648,
            "byteOffset" : 453908,
            "target" : 34962
        },
        {
            "buffer" : 0,
            "byteLength" : 6912,
            "byteOffset" : 481556,
            "target" : 34963
        },
        {
            "buffer" : 0,
            "byteLength" : 27648,
            "byteOffset" : 488468,
            "target" : 34962
        },
        {
            "buffer" : 0,
            "byteLength" : 27648,
            "byteOffset" : 516116,
            "target" : 34962
        },
        {
            "buffer" : 0,
            "byteLength" : 6912,
            "byteOffset" : 543764,
            "target" : 34963
        },
        {
            "buffer" : 0,
            "byteLength" : 27648,
            "byteOffset" : 550676,
            "target" : 34962
        },
        {
            "buffer" : 0,
            "byteLength" : 27648,
            "byteOffset" : 578324,
            "target" : 34962
        },
        {
            "buffer" : 0,
            "byteLength" : 6912,
            "byteOffset" : 605972,
            "target" : 34963
        },
        {
            "buffer" : 0,
            "byteLength" : 27648,
            "byteOffset" : 612884,
            "target" : 34962
        },
        {
            "buffer" : 0,
            "byteLength" : 27648,
            "byteOffset" : 640532,
            "target" : 34962
        },
        {
            "buffer" : 0,
            "byteLength" : 6912,
            "byteOffset" : 668180,
            "target" : 34963
        },
        {
            "buffer" : 0,
            "byteLength" : 27648,
            "byteOffset" : 675092,
            "target" : 34962
        },
        {
            "buffer" : 0,
            "byteLength" : 27648,
            "byteOffset" : 702740,
            "target" : 34962
        },
        {
            "buffer" : 0,
            "byteLength" : 708,
            "byteOffset" : 730388,
            "target" : 34963
        },
        {
            "buffer" : 0,
            "byteLength" : 1992,
            "byteOffset" : 731096,
            "target" : 34962
        },
        {
            "buffer" : 0,
            "byteLength" : 1992,
            "byteOffset" : 733088,
            "target" : 34962
        },
        {
            "buffer" : 0,
            "byteLength" : 708,
            "byteOffset" : 735080,
            "target" : 34963
        },
        {
            "buffer" : 0,
            "byteLength" : 2004,
            "byteOffset" : 735788,
            "target" : 34962
        },
        {
            "buffer" : 0,
            "byteLength" : 2004,
            "byteOffset" : 737792,
            "target" : 34962
        },
        {
            "buffer" : 0,
            "byteLength" : 636,
            "byteOffset" : 739796,
            "target" : 34963
        },
        {
            "buffer" : 0,
            "byteLength" : 1704,
            "byteOffset" : 740432,
            "target" : 34962
        },
        {
            "buffer" : 0,
            "byteLength" : 1704,
            "byteOffset" : 742136,
            "target" : 34962
        },
        {
            "buffer" : 0,
            "byteLength" : 636,
            "byteOffset" : 743840,
            "target" : 34963
        },
        {
            "buffer" : 0,
            "byteLength" : 1956,
            "byteOffset" : 744476,
            "target" : 34962
        },
        {
            "buffer" : 0,
            "byteLength" : 1956,
            "byteOffset" : 746432,
            "target" : 34962
        },
        {
            "buffer" : 0,
            "byteLength" : 492,
            "byteOffset" : 748388,
            "target" : 34963
        },
        {
            "buffer" : 0,
            "byteLength" : 1452,
            "byteOffset" : 748880,
            "target" : 34962
        },
        {
            "buffer" : 0,
            "byteLength" : 1452,
            "byteOffset" : 750332,
            "target" : 34962
        },
        {
            "buffer" : 0,
            "byteLength" : 1266,
            "byteOffset" : 751784,
            "target" : 34963
        },
        {
            "buffer" : 0,
            "byteLength" : 3192,
            "byteOffset" : 753052,
            "target" : 34962
        },
        {
            "buffer" : 0,
            "byteLength" : 3192,
            "byteOffset" : 756244,
            "target" : 34962
        },
        {
            "buffer" : 0,
            "byteLength" : 1266,
            "byteOffset" : 759436,
            "target" : 34963
        },
        {
            "buffer" : 0,
            "byteLength" : 3192,
            "byteOffset" : 760704,
            "target" : 34962
        },
        {
            "buffer" : 0,
            "byteLength" : 3192,
            "byteOffset" : 763896,
            "target" : 34962
        },
        {
            "buffer" : 0,
            "byteLength" : 5838,
            "byteOffset" : 767088,
            "target" : 34963
        },
        {
            "buffer" : 0,
            "byteLength" : 15252,
            "byteOffset" : 772928,
            "target" : 34962
        },
        {
            "buffer" : 0,
            "byteLength" : 15252,
            "byteOffset" : 788180,
            "target" : 34962
        },
        {
            "buffer" : 0,
            "byteLength" : 4614,
            "byteOffset" : 803432,
            "target" : 34963
        },
        {
            "buffer" : 0,
            "byteLength" : 12768,
            "byteOffset" : 808048,
            "target" : 34962
        },
        {
            "buffer" : 0,
            "byteLength" : 12768,
            "byteOffset" : 820816,
            "target" : 34962
        },
        {
            "buffer" : 0,
            "byteLength" : 3888,
            "byteOffset" : 833584,
            "target" : 34963
        },
        {
            "buffer" : 0,
            "byteLength" : 10884,
            "byteOffset" : 837472,
            "target" : 34962
        },
        {
            "buffer" : 0,
            "byteLength" : 10884,
            "byteOffset" : 848356,
            "target" : 34962
        },
        {
            "buffer" : 0,
            "byteLength" : 4830,
            "byteOffset" : 859240,
            "target" : 34963
        },
        {
            "buffer" : 0,
            "byteLength" : 13308,
            "byteOffset" : 864072,
            "target" : 34962
        },
        {
            "buffer" : 0,
            "byteLength" : 13308,
            "byteOffset" : 877380,
            "target" : 34962
        }
    ],
    "buffers" : [
        {
            "byteLength" : 890688,
            "uri" : "todos.bin"
        }
    ],
    "materials" : [
        {
            "name" : "Amarillo",
            "pbrMetallicRoughness" : {
                "baseColorFactor" : [
                    0.640000066757203,
                    0.5988461583680831,
                    0.0006775240514803535,
                    1.0
                ],
                "metallicFactor" : 0.0
            }
        },
        {
            "name" : "azul",
            "pbrMetallicRoughness" : {
                "baseColorFactor" : [
                    0.0,
                    4.60245071317927e-06,
                    0.640000066757203,
                    1.0
                ],
                "metallicFactor" : 0.0
            }
        },
        {
            "name" : "Azul",
            "pbrMetallicRoughness" : {
                "baseColorFactor" : [
                    0.0,
                    0.03543765597697579,
                    0.640000066757203,
                    1.0
                ],
                "metallicFactor" : 0.0
            }
        },
        {
            "name" : "Azul.001",
            "pbrMetallicRoughness" : {
                "baseColorFactor" : [
                    0.0013174382234728069,
                    0.10086496026612757,
                    0.640000066757203,
                    1.0
                ],
                "metallicFactor" : 0.0
            }
        },
        {
            "name" : "blanco",
            "pbrMetallicRoughness" : {
                "baseColorFactor" : [
                    0.800000011920929,
                    0.800000011920929,
                    0.800000011920929,
                    1.0
                ],
                "metallicFactor" : 0.0
            }
        },
        {
            "name" : "Gris",
            "pbrMetallicRoughness" : {
                "baseColorFactor" : [
                    0.06126372309422079,
                    0.06126372309422079,
                    0.06126372309422079,
                    1.0
                ],
                "metallicFactor" : 0.0
            }
        },
        {
            "name" : "Material.001",
            "pbrMetallicRoughness" : {
                "baseColorFactor" : [
                    0.640000066757203,
                    0.6010469049371316,
                    0.07873818395641718,
                    1.0
                ],
                "metallicFactor" : 0.0
            }
        },
        {
            "name" : "Material.002",
            "pbrMetallicRoughness" : {
                "baseColorFactor" : [
                    0.0039445587090337075,
                    0.2538427629149371,
                    0.640000066757203,
                    1.0
                ],
                "metallicFactor" : 0.0
            }
        },
        {
            "name" : "Naranja",
            "pbrMetallicRoughness" : {
                "baseColorFactor" : [
                    0.640000066757203,
                    0.33341632386172293,
                    0.0664113591076636,
                    1.0
                ],
                "metallicFactor" : 0.0
            }
        },
        {
            "name" : "Naranja.001",
            "pbrMetallicRoughness" : {
                "baseColorFactor" : [
                    0.640000066757203,
                    0.33005984321325776,
                    0.005460528738208542,
                    1.0
                ],
                "metallicFactor" : 0.0
            }
        },
        {
            "name" : "negro",
            "pbrMetallicRoughness" : {
                "baseColorFactor" : [
                    0.0,
                    0.0,
                    0.0,
                    1.0
                ],
                "metallicFactor" : 0.0
            }
        },
        {
            "name" : "Rojo",
            "pbrMetallicRoughness" : {
                "baseColorFactor" : [
                    1.0,
                    0.07606041431427002,
                    0.001676288666203618,
                    1.0
                ],
                "metallicFactor" : 0.0
            }
        },
        {
            "name" : "SVGMat.001",
            "pbrMetallicRoughness" : {
                "baseColorFactor" : [
                    0.0,
                    0.0,
                    0.0,
                    1.0
                ],
                "metallicFactor" : 0.0
            }
        },
        {
            "name" : "SVGMat.002",
            "pbrMetallicRoughness" : {
                "baseColorFactor" : [
                    0.0,
                    0.0,
                    0.0,
                    1.0
                ],
                "metallicFactor" : 0.0
            }
        },
        {
            "name" : "SVGMat.003",
            "pbrMetallicRoughness" : {
                "baseColorFactor" : [
                    0.0,
                    0.0,
                    0.0,
                    1.0
                ],
                "metallicFactor" : 0.0
            }
        },
        {
            "name" : "SVGMat.004",
            "pbrMetallicRoughness" : {
                "baseColorFactor" : [
                    0.0,
                    0.0,
                    0.0,
                    1.0
                ],
                "metallicFactor" : 0.0
            }
        },
        {
            "name" : "SVGMat.005",
            "pbrMetallicRoughness" : {
                "baseColorFactor" : [
                    0.0,
                    0.0,
                    0.0,
                    1.0
                ],
                "metallicFactor" : 0.0
            }
        },
        {
            "name" : "Verde.001",
            "pbrMetallicRoughness" : {
                "baseColorFactor" : [
                    0.0,
                    0.640000066757203,
                    0.006628398696011284,
                    1.0
                ],
                "metallicFactor" : 0.0
            }
        },
        {
            "name" : "Violete",
            "pbrMetallicRoughness" : {
                "baseColorFactor" : [
                    0.2434871471447817,
                    0.000879872789679062,
                    0.640000066757203,
                    1.0
                ],
                "metallicFactor" : 0.0
            }
        }
    ],
    "meshes" : [
        {
            "name" : "Cilindro",
            "primitives" : [
                {
                    "attributes" : {
                        "NORMAL" : 2,
                        "POSITION" : 1
                    },
                    "indices" : 0,
                    "material" : 5
                }
            ]
        },
        {
            "name" : "Cilindro.001",
            "primitives" : [
                {
                    "attributes" : {
                        "NORMAL" : 5,
                        "POSITION" : 4
                    },
                    "indices" : 3,
                    "material" : 17
                }
            ]
        },
        {
            "name" : "Cilindro.002",
            "primitives" : [
                {
                    "attributes" : {
                        "NORMAL" : 8,
                        "POSITION" : 7
                    },
                    "indices" : 6,
                    "material" : 5
                }
            ]
        },
        {
            "name" : "Cilindro.004",
            "primitives" : [
                {
                    "attributes" : {
                        "NORMAL" : 11,
                        "POSITION" : 10
                    },
                    "indices" : 9,
                    "material" : 5
                }
            ]
        },
        {
            "name" : "Cilindro.005",
            "primitives" : [
                {
                    "attributes" : {
                        "NORMAL" : 14,
                        "POSITION" : 13
                    },
                    "indices" : 12,
                    "material" : 5
                }
            ]
        },
        {
            "name" : "Cube",
            "primitives" : [
                {
                    "attributes" : {
                        "NORMAL" : 17,
                        "POSITION" : 16
                    },
                    "indices" : 15,
                    "material" : 9
                }
            ]
        },
        {
            "name" : "Cube.001",
            "primitives" : [
                {
                    "attributes" : {
                        "NORMAL" : 20,
                        "POSITION" : 19
                    },
                    "indices" : 18,
                    "material" : 0
                }
            ]
        },
        {
            "name" : "Cube.002",
            "primitives" : [
                {
                    "attributes" : {
                        "NORMAL" : 23,
                        "POSITION" : 22
                    },
                    "indices" : 21,
                    "material" : 18
                }
            ]
        },
        {
            "name" : "Cube.003",
            "primitives" : [
                {
                    "attributes" : {
                        "NORMAL" : 26,
                        "POSITION" : 25
                    },
                    "indices" : 24,
                    "material" : 3
                }
            ]
        },
        {
            "name" : "Cubo",
            "primitives" : [
                {
                    "attributes" : {
                        "NORMAL" : 29,
                        "POSITION" : 28
                    },
                    "indices" : 27,
                    "material" : 8
                }
            ]
        },
        {
            "name" : "Cubo.001",
            "primitives" : [
                {
                    "attributes" : {
                        "NORMAL" : 32,
                        "POSITION" : 31
                    },
                    "indices" : 30,
                    "material" : 8
                }
            ]
        },
        {
            "name" : "Cubo.004",
            "primitives" : [
                {
                    "attributes" : {
                        "COLOR_0" : 36,
                        "NORMAL" : 35,
                        "POSITION" : 34
                    },
                    "indices" : 33,
                    "material" : 6
                }
            ]
        },
        {
            "name" : "CUpath815.004",
            "primitives" : [
                {
                    "attributes" : {
                        "NORMAL" : 39,
                        "POSITION" : 38
                    },
                    "indices" : 37,
                    "material" : 11
                }
            ]
        },
        {
            "name" : "CUpath817.004",
            "primitives" : [
                {
                    "attributes" : {
                        "NORMAL" : 42,
                        "POSITION" : 41
                    },
                    "indices" : 40,
                    "material" : 11
                }
            ]
        },
        {
            "name" : "CUTexto.002",
            "primitives" : [
                {
                    "attributes" : {
                        "NORMAL" : 45,
                        "POSITION" : 44
                    },
                    "indices" : 43,
                    "material" : 17
                }
            ]
        },
        {
            "name" : "C\u00edrculo",
            "primitives" : [
                {
                    "attributes" : {
                        "NORMAL" : 48,
                        "POSITION" : 47
                    },
                    "indices" : 46,
                    "material" : 1
                }
            ]
        },
        {
            "name" : "Plano",
            "primitives" : [
                {
                    "attributes" : {
                        "NORMAL" : 51,
                        "POSITION" : 50
                    },
                    "indices" : 49,
                    "material" : 17
                }
            ]
        },
        {
            "name" : "Plano.001",
            "primitives" : [
                {
                    "attributes" : {
                        "NORMAL" : 54,
                        "POSITION" : 53
                    },
                    "indices" : 52,
                    "material" : 4
                }
            ]
        },
        {
            "name" : "Plano.002",
            "primitives" : [
                {
                    "attributes" : {
                        "NORMAL" : 57,
                        "POSITION" : 56
                    },
                    "indices" : 55
                }
            ]
        },
        {
            "name" : "Plano.003",
            "primitives" : [
                {
                    "attributes" : {
                        "NORMAL" : 60,
                        "POSITION" : 59
                    },
                    "indices" : 58
                }
            ]
        },
        {
            "name" : "Torus.001",
            "primitives" : [
                {
                    "attributes" : {
                        "NORMAL" : 63,
                        "POSITION" : 62
                    },
                    "indices" : 61,
                    "material" : 7
                }
            ]
        },
        {
            "name" : "Torus.002",
            "primitives" : [
                {
                    "attributes" : {
                        "NORMAL" : 66,
                        "POSITION" : 65
                    },
                    "indices" : 64,
                    "material" : 2
                }
            ]
        },
        {
            "name" : "Torus.005",
            "primitives" : [
                {
                    "attributes" : {
                        "NORMAL" : 69,
                        "POSITION" : 68
                    },
                    "indices" : 67,
                    "material" : 2
                }
            ]
        },
        {
            "name" : "Torus.006",
            "primitives" : [
                {
                    "attributes" : {
                        "NORMAL" : 72,
                        "POSITION" : 71
                    },
                    "indices" : 70,
                    "material" : 2
                }
            ]
        },
        {
            "name" : "Torus.007",
            "primitives" : [
                {
                    "attributes" : {
                        "NORMAL" : 75,
                        "POSITION" : 74
                    },
                    "indices" : 73,
                    "material" : 2
                }
            ]
        },
        {
            "name" : "Torus.008",
            "primitives" : [
                {
                    "attributes" : {
                        "NORMAL" : 78,
                        "POSITION" : 77
                    },
                    "indices" : 76,
                    "material" : 2
                }
            ]
        },
        {
            "name" : "path1026",
            "primitives" : [
                {
                    "attributes" : {
                        "NORMAL" : 81,
                        "POSITION" : 80
                    },
                    "indices" : 79,
                    "material" : 12
                }
            ]
        },
        {
            "name" : "path1028",
            "primitives" : [
                {
                    "attributes" : {
                        "NORMAL" : 84,
                        "POSITION" : 83
                    },
                    "indices" : 82,
                    "material" : 13
                }
            ]
        },
        {
            "name" : "path1030",
            "primitives" : [
                {
                    "attributes" : {
                        "NORMAL" : 87,
                        "POSITION" : 86
                    },
                    "indices" : 85,
                    "material" : 14
                }
            ]
        },
        {
            "name" : "path1032",
            "primitives" : [
                {
                    "attributes" : {
                        "NORMAL" : 90,
                        "POSITION" : 89
                    },
                    "indices" : 88,
                    "material" : 15
                }
            ]
        },
        {
            "name" : "path1034",
            "primitives" : [
                {
                    "attributes" : {
                        "NORMAL" : 93,
                        "POSITION" : 92
                    },
                    "indices" : 91,
                    "material" : 16
                }
            ]
        },
        {
            "name" : "Texto",
            "primitives" : [
                {
                    "attributes" : {
                        "NORMAL" : 96,
                        "POSITION" : 95
                    },
                    "indices" : 94,
                    "material" : 10
                }
            ]
        },
        {
            "name" : "Texto.001",
            "primitives" : [
                {
                    "attributes" : {
                        "NORMAL" : 99,
                        "POSITION" : 98
                    },
                    "indices" : 97,
                    "material" : 4
                }
            ]
        },
        {
            "name" : "Texto.002",
            "primitives" : [
                {
                    "attributes" : {
                        "NORMAL" : 102,
                        "POSITION" : 101
                    },
                    "indices" : 100,
                    "material" : 4
                }
            ]
        },
        {
            "name" : "Texto.003",
            "primitives" : [
                {
                    "attributes" : {
                        "NORMAL" : 105,
                        "POSITION" : 104
                    },
                    "indices" : 103,
                    "material" : 4
                }
            ]
        },
        {
            "name" : "Texto.004",
            "primitives" : [
                {
                    "attributes" : {
                        "NORMAL" : 108,
                        "POSITION" : 107
                    },
                    "indices" : 106,
                    "material" : 4
                }
            ]
        },
        {
            "name" : "Texto.005",
            "primitives" : [
                {
                    "attributes" : {
                        "NORMAL" : 111,
                        "POSITION" : 110
                    },
                    "indices" : 109,
                    "material" : 4
                }
            ]
        }
    ],
    "nodes" : [
        {
            "name" : "Camera",
            "rotation" : [
                0.483536034822464,
                0.33687159419059753,
                -0.20870360732078552,
                0.7804827094078064
            ],
            "translation" : [
                7.481131553649902,
                5.34366512298584,
                6.5076398849487305
            ]
        },
        {
            "mesh" : 0,
            "name" : "Cilindro",
            "rotation" : [
                -1.1520234721729139e-07,
                -0.7071068286895752,
                -0.7071068286895752,
                1.1520234011186403e-07
            ],
            "scale" : [
                0.0047435755841434,
                0.0024040662683546543,
                0.0047435755841434
            ],
            "translation" : [
                -0.016193188726902008,
                -0.10152693092823029,
                0.004418849013745785
            ]
        },
        {
            "mesh" : 1,
            "name" : "Cilindro.001",
            "rotation" : [
                -1.1520234721729139e-07,
                -0.7071068286895752,
                -0.7071068286895752,
                1.1520234011186403e-07
            ],
            "scale" : [
                0.0047435755841434,
                0.002404166618362069,
                0.0047435755841434
            ],
            "translation" : [
                -0.006619106978178024,
                -0.10367575287818909,
                0.004426221363246441
            ]
        },
        {
            "mesh" : 2,
            "name" : "Cilindro.002",
            "rotation" : [
                -1.1520234721729139e-07,
                -0.7071068286895752,
                -0.7071068286895752,
                1.1520234011186403e-07
            ],
            "scale" : [
                0.0047435755841434,
                0.002404166618362069,
                0.0047435755841434
            ],
            "translation" : [
                0.0037948116660118103,
                -0.10367575287818909,
                0.004426221363246441
            ]
        },
        {
            "mesh" : 3,
            "name" : "Cilindro.003",
            "rotation" : [
                -1.1520234721729139e-07,
                -0.7071068286895752,
                -0.7071068286895752,
                1.1520234011186403e-07
            ],
            "scale" : [
                0.0047435755841434,
                0.0023974012583494186,
                0.0047435755841434
            ],
            "translation" : [
                0.009187497198581696,
                -0.09383489191532135,
                0.004437762312591076
            ]
        },
        {
            "mesh" : 4,
            "name" : "Cilindro.004",
            "rotation" : [
                0.311294823884964,
                -0.6348980069160461,
                -0.6348980665206909,
                0.31129488348960876
            ],
            "scale" : [
                0.004743576981127262,
                0.0023756965529173613,
                0.004743576981127262
            ],
            "translation" : [
                0.013788014650344849,
                -0.10243943333625793,
                0.004691208712756634
            ]
        },
        {
            "mesh" : 5,
            "name" : "Cube",
            "rotation" : [
                0.6474278569221497,
                -0.27155250310897827,
                -0.2831155061721802,
                0.6534079909324646
            ],
            "scale" : [
                0.0028098442126065493,
                0.002312759170308709,
                0.00291085965000093
            ],
            "translation" : [
                0.010576697997748852,
                -0.1842881292104721,
                0.005012474954128265
            ]
        },
        {
            "mesh" : 6,
            "name" : "Cube.001",
            "rotation" : [
                0.6475570201873779,
                -0.27023717761039734,
                -0.28440672159194946,
                0.6532646417617798
            ],
            "scale" : [
                0.0028098439797759056,
                0.00231275730766356,
                0.0029108598828315735
            ],
            "translation" : [
                0.018863443285226822,
                -0.18432027101516724,
                0.005012474954128265
            ]
        },
        {
            "mesh" : 7,
            "name" : "Cube.002",
            "rotation" : [
                0.647261381149292,
                -0.2791127562522888,
                -0.2838653326034546,
                0.6500533223152161
            ],
            "scale" : [
                0.0028098442126065493,
                0.002312758006155491,
                0.002910860348492861
            ],
            "translation" : [
                0.02700323984026909,
                -0.18434180319309235,
                0.005012474954128265
            ]
        },
        {
            "mesh" : 8,
            "name" : "Cube.003",
            "rotation" : [
                0.6496614217758179,
                -0.2631760835647583,
                -0.2921164631843567,
                0.650650680065155
            ],
            "scale" : [
                0.0028098432812839746,
                0.002312758471816778,
                0.002910860348492861
            ],
            "translation" : [
                0.019162476062774658,
                -0.17619259655475616,
                0.005012474954128265
            ]
        },
        {
            "mesh" : 9,
            "name" : "Cubo",
            "rotation" : [
                9.848171167448072e-09,
                0.2608863115310669,
                -2.5038003670374565e-08,
                0.9653696417808533
            ],
            "scale" : [
                0.009255673736333847,
                0.013883508741855621,
                0.000925567583180964
            ],
            "translation" : [
                0.007385142147541046,
                -0.025096431374549866,
                0.004763374570757151
            ]
        },
        {
            "mesh" : 10,
            "name" : "Cubo.001",
            "rotation" : [
                4.697962552313584e-08,
                -0.2740132510662079,
                -3.194918463123031e-08,
                0.9617260098457336
            ],
            "scale" : [
                0.009255673736333847,
                0.013883508741855621,
                0.0009255678160116076
            ],
            "translation" : [
                -0.00750347226858139,
                -0.024134859442710876,
                0.004621861036866903
            ]
        },
        {
            "mesh" : 11,
            "name" : "Cubo.002",
            "rotation" : [
                3.5359744021690176e-09,
                -0.49548739194869995,
                -7.668788271075755e-08,
                0.8686151504516602
            ],
            "scale" : [
                0.0009255676413886249,
                0.012957939878106117,
                0.007404539734125137
            ],
            "translation" : [
                0.007798768579959869,
                -0.0242488831281662,
                0.005281573627144098
            ]
        },
        {
            "mesh" : 12,
            "name" : "Curve",
            "rotation" : [
                0.7082650065422058,
                0.013874206691980362,
                -0.010880731977522373,
                0.7057264447212219
            ],
            "scale" : [
                0.07316712290048599,
                0.006404540501534939,
                0.0842062458395958
            ],
            "translation" : [
                -0.005907181650400162,
                -0.05478473752737045,
                0.008227454498410225
            ]
        },
        {
            "mesh" : 13,
            "name" : "Curve.001",
            "rotation" : [
                0.7079707384109497,
                0.026084385812282562,
                -0.023135295137763023,
                0.7053806781768799
            ],
            "scale" : [
                0.07316713035106659,
                0.006404540501534939,
                0.0842062458395958
            ],
            "translation" : [
                -0.00599047914147377,
                -0.05478473752737045,
                0.008323784917593002
            ]
        },
        {
            "mesh" : 27,
            "name" : "Curve.002",
            "rotation" : [
                0.7071068286895752,
                0.0,
                -0.0,
                0.7071068286895752
            ],
            "scale" : [
                0.1430339813232422,
                0.012186839245259762,
                0.14188779890537262
            ],
            "translation" : [
                -0.015660475939512253,
                -0.19509553909301758,
                0.0058499546721577644
            ]
        },
        {
            "mesh" : 28,
            "name" : "Curve.003",
            "rotation" : [
                0.7071068286895752,
                0.0,
                -0.0,
                0.7071068286895752
            ],
            "scale" : [
                0.1430339813232422,
                0.012186839245259762,
                0.14188779890537262
            ],
            "translation" : [
                -0.015660475939512253,
                -0.19509553909301758,
                0.0058499546721577644
            ]
        },
        {
            "mesh" : 29,
            "name" : "Curve.004",
            "rotation" : [
                0.7071068286895752,
                0.0,
                -0.0,
                0.7071068286895752
            ],
            "scale" : [
                0.1430339813232422,
                0.012186839245259762,
                0.14188779890537262
            ],
            "translation" : [
                -0.015660475939512253,
                -0.19509553909301758,
                0.0058499546721577644
            ]
        },
        {
            "mesh" : 30,
            "name" : "Curve.005",
            "rotation" : [
                0.7071068286895752,
                0.0,
                -0.0,
                0.7071068286895752
            ],
            "scale" : [
                0.1430339813232422,
                0.012186839245259762,
                0.14188779890537262
            ],
            "translation" : [
                -0.015660475939512253,
                -0.19509553909301758,
                0.0058499546721577644
            ]
        },
        {
            "mesh" : 26,
            "name" : "Curve.006",
            "rotation" : [
                0.7071068286895752,
                0.0,
                -0.0,
                0.7071068286895752
            ],
            "scale" : [
                0.1430339813232422,
                0.012186839245259762,
                0.14188779890537262
            ],
            "translation" : [
                -0.015660475939512253,
                -0.19509553909301758,
                0.0058499546721577644
            ]
        },
        {
            "mesh" : 15,
            "name" : "C\u00edrculo",
            "rotation" : [
                0.7071068286895752,
                0.0,
                -0.0,
                0.7071068286895752
            ],
            "scale" : [
                0.02299591898918152,
                0.09758338332176208,
                0.01432846114039421
            ],
            "translation" : [
                0.00030743610113859177,
                -0.145538330078125,
                0.0071387458592653275
            ]
        },
        {
            "name" : "Lamp",
            "rotation" : [
                0.16907575726509094,
                0.7558802962303162,
                -0.27217137813568115,
                0.570947527885437
            ],
            "scale" : [
                1.0,
                1.0,
                0.9999999403953552
            ],
            "translation" : [
                4.076245307922363,
                5.903861999511719,
                -1.0054539442062378
            ]
        },
        {
            "mesh" : 24,
            "name" : "Original.001",
            "scale" : [
                0.005096668377518654,
                0.003080599009990692,
                0.005524494219571352
            ],
            "translation" : [
                -0.0007402226328849792,
                0.010349697433412075,
                0.0068990308791399
            ]
        },
        {
            "mesh" : 25,
            "name" : "Original.002",
            "scale" : [
                0.006178426090627909,
                0.003080599009990692,
                0.0066543687134981155
            ],
            "translation" : [
                -0.0007310658693313599,
                0.01305404957383871,
                0.006753722205758095
            ]
        },
        {
            "mesh" : 18,
            "name" : "Plano",
            "rotation" : [
                0.35036247968673706,
                -0.35036247968673706,
                -0.6142036318778992,
                0.614203691482544
            ],
            "scale" : [
                0.011914127506315708,
                0.008466723375022411,
                0.006773379631340504
            ],
            "translation" : [
                0.008487969636917114,
                -0.026225998997688293,
                0.005804017651826143
            ]
        },
        {
            "mesh" : 19,
            "name" : "Plano.001",
            "rotation" : [
                0.6154675483703613,
                -0.6154675483703613,
                -0.3481375575065613,
                0.3481375575065613
            ],
            "scale" : [
                0.013764063827693462,
                0.007201120723038912,
                0.008705656975507736
            ],
            "translation" : [
                -0.006592638790607452,
                -0.02633507549762726,
                0.004873504396528006
            ]
        },
        {
            "mesh" : 16,
            "name" : "Plano.002",
            "rotation" : [
                -1.1520234721729139e-07,
                -0.7071068286895752,
                -0.7071068286895752,
                1.1520234011186403e-07
            ],
            "scale" : [
                0.0047435755841434,
                0.0047435755841434,
                0.0047435755841434
            ],
            "translation" : [
                0.0045409053564071655,
                -0.11794321238994598,
                0.007573495618999004
            ]
        },
        {
            "mesh" : 17,
            "name" : "Plano.003",
            "rotation" : [
                -0.5,
                0.4999999701976776,
                -0.4999999701976776,
                0.5
            ],
            "scale" : [
                -0.000517861801199615,
                -0.004450702108442783,
                -0.015973413363099098
            ],
            "translation" : [
                -0.00942515954375267,
                -0.1843830794095993,
                0.007319547235965729
            ]
        },
        {
            "mesh" : 31,
            "name" : "Texto",
            "rotation" : [
                0.7071068286895752,
                0.0,
                -0.0,
                0.7071068286895752
            ],
            "scale" : [
                0.023900112137198448,
                0.09758338332176208,
                0.022326771169900894
            ],
            "translation" : [
                -0.01518234983086586,
                -0.1496749371290207,
                0.009634880349040031
            ]
        },
        {
            "mesh" : 14,
            "name" : "Texto.001",
            "rotation" : [
                0.7071068286895752,
                1.7701958654470218e-07,
                5.3385093679025886e-08,
                0.7071068286895752
            ],
            "scale" : [
                0.009242119267582893,
                0.0054336911998689175,
                0.007538191974163055
            ],
            "translation" : [
                -0.0005052126944065094,
                -0.1223917156457901,
                0.00738623458892107
            ]
        },
        {
            "mesh" : 32,
            "name" : "Texto.002",
            "rotation" : [
                0.7071068286895752,
                0.0,
                -0.0,
                0.7071068286895752
            ],
            "scale" : [
                0.023900112137198448,
                0.09758338332176208,
                0.022326771169900894
            ],
            "translation" : [
                -0.015830881893634796,
                -0.14898008108139038,
                0.007781924679875374
            ]
        },
        {
            "mesh" : 34,
            "name" : "Texto.003",
            "rotation" : [
                0.7071068286895752,
                1.5454311608209537e-08,
                1.5454311608209537e-08,
                0.7071068286895752
            ],
            "scale" : [
                0.0027613386046141386,
                0.004450702108442783,
                0.0029594001825898886
            ],
            "translation" : [
                0.001261884463019669,
                -0.1939086765050888,
                0.007319547235965729
            ]
        },
        {
            "mesh" : 33,
            "name" : "Texto.004",
            "rotation" : [
                0.7071068286895752,
                1.5454311608209537e-08,
                1.5454309831852697e-08,
                0.7071068286895752
            ],
            "scale" : [
                0.006520719267427921,
                0.004450702108442783,
                0.007145247887820005
            ],
            "translation" : [
                -0.025209549814462662,
                -0.19104765355587006,
                0.007319547235965729
            ]
        },
        {
            "mesh" : 35,
            "name" : "Texto.005",
            "rotation" : [
                0.7071068286895752,
                1.5454313384566376e-08,
                1.5454309831852697e-08,
                0.7071068286895752
            ],
            "scale" : [
                0.004450702108442783,
                0.004450702108442783,
                0.0072857956402003765
            ],
            "translation" : [
                -0.025565767660737038,
                -0.1830684095621109,
                0.007319547235965729
            ]
        },
        {
            "mesh" : 36,
            "name" : "Texto.006",
            "rotation" : [
                0.7071068286895752,
                1.5454311608209537e-08,
                1.5454309831852697e-08,
                0.7071068286895752
            ],
            "scale" : [
                0.004450702108442783,
                0.004450702108442783,
                0.004450702108442783
            ],
            "translation" : [
                -0.01303747110068798,
                -0.17695163190364838,
                0.007319547235965729
            ]
        },
        {
            "mesh" : 21,
            "name" : "Torus.000",
            "scale" : [
                0.0066825225949287415,
                0.003080599009990692,
                0.006693666335195303
            ],
            "translation" : [
                -0.00017202645540237427,
                0.007249540649354458,
                0.006698381155729294
            ]
        },
        {
            "mesh" : 22,
            "name" : "Torus.001",
            "scale" : [
                0.003971274010837078,
                0.003080599009990692,
                0.004026217386126518
            ],
            "translation" : [
                -0.00019380450248718262,
                0.008726156316697598,
                0.007292235270142555
            ]
        },
        {
            "mesh" : 23,
            "name" : "Torus.002",
            "scale" : [
                0.006966446992009878,
                0.003080599009990692,
                0.006804984994232655
            ],
            "translation" : [
                -0.00017202645540237427,
                0.00628154631704092,
                0.0071419961750507355
            ]
        },
        {
            "mesh" : 20,
            "name" : "Torus.003",
            "rotation" : [
                0.7071068286895752,
                0.0,
                -0.0,
                0.7071068286895752
            ],
            "scale" : [
                0.012186839245259762,
                0.00501586776226759,
                0.012186839245259762
            ],
            "translation" : [
                -0.00041799177415668964,
                -0.06577910482883453,
                0.004526806995272636
            ]
        }
    ],
    "scene" : 0,
    "scenes" : [
        {
            "name" : "Scene",
            "nodes" : [
                21,
                0,
                20,
                28,
                30,
                10,
                11,
                12,
                24,
                25,
                13,
                14,
                22,
                23,
                35,
                36,
                37,
                19,
                15,
                16,
                17,
                18,
                38,
                1,
                2,
                3,
                4,
                5,
                26,
                29,
                6,
                7,
                8,
                9,
                27,
                34,
                33,
                32,
                31
            ]
        }
    ]
}
